[
    {
        "email": "larreadg@gmail.com",
        "name": "Diego Larrea",
        "phone": "0972413798",
        "user_id": 1
    },
    {
        "email": "beatrizvierci@cds.com.py",
        "name": "Beatriz Vierci",
        "phone": "0981972752",
        "user_id": 2
    },
    {
        "email": "marga@plub.com.py",
        "name": "Margarita Rojas",
        "phone": "0983483017",
        "user_id": 3
    },
    {
        "email": "dantepane@gmail.com",
        "name": "Dante Pane",
        "phone": "0992447640",
        "user_id": 4
    }
]